{"ground_type": [
  {
    "type": "Grass",
    "pros": "Grass is soft and low impact, so it may be a better choice for people who have impact-related running injuries. It's usually rated as one of the best surfaces for running.",
    "cons": "A run in the park can be a little stressful! Besides hidden holes, rocks, and twigs, you also have to watch out for other obstacles, like pedestrians, dogs, and other distractions.",
    "note": "Not paying attention when running on grass commonly leads to injuries like a twisted ankle, so make sure you keep aware of both the ground directly in front of you as well as the ground ahead."
  },
  {
    "type": "Dirt",
    "pros": "Behind grass, dirt roads are also often rated as one of the best surfaces to run on. Dirt has just enough hardness and leeway to make for a prime running surface, especially if you suffer from shin splints, IT band syndrome, or other impact-related injuries.",
    "cons": "The unevenness of dirt trails can be bad for your ankles, so avoid dirt roads if you've had an ankle injury.",
    "note": "Like grass, dirt trails can be uneven, so pay close attention to where you're stepping."
  },
  {
    "type": "Synthetic Track",
    "pros": "The spongy surface of a synthetic track strikes the right balance between soft and sturdy.",
    "cons": "Can you say tedious? Long runs can be boring in the oval. Also, people with calf sprains and IT band problems should watch out: circling around the track can shorten calf muscles and stress your IT band.",
    "note": " If you do have these problems, keep track runs short, and try easing up as you round the corners."
  },
  {
    "type": "Asphalt",
    "pros": "Since most races are run on the street, if you are training for a race you should get off the treadmill, so you will be more in tune with any obstacles in the streets. Also, running on the street can be better for those who experience Achilles tendonitis, since the sturdy surface keeps your Achilles tendon in a less-tensed position.",
    "cons": "The road is made up of many different obstacles and dangers, from potholes to cars, which can make your running more unsafe.",
    "note": "When running on the road, always wear bright clothes and make sure you turn your music down low if you wear headphones so you can be aware of what's going on around you."
  },
  {
    "type": "Concrete",
    "pros": "Running on the sidewalk can be the most convenient if you live in a city, and it also may be the safest option if you don't want to risk it on the road.",
    "cons": "Concrete sidewalks are one of the hardest surfaces you can run on, which may translate to more stress on your joints and muscles. Most running experts recommend you try to limit your time on the sidewalk, but other studies have shown that there is no difference in the amount of stress on your body when you run on the sidewalk versus running on the road. But if you have injuries like ankle sprains or knee pain, it's probably best if you stay off the road.",
    "note": "If you want to run on concrete, make sure you have the best footwear for the job. Wear shoes with adequate cushioning if you find that running on concrete leads to joint pain."
  }
]}